…
    WearWheelsWideAgain$RInner <- ifelse(endsWith(WearWheelsWideAgain$track, "_Ur"), 
                                         WearWheelsWideAgain$RL, WearWheelsWideAgain$RR)
    WearWheelsWideAgain$ROuter <- ifelse(endsWith(WearWheelsWideAgain$track, "_Ur"), 
                                         WearWheelsWideAgain$RR, WearWheelsWideAgain$RL)
    WearWheelsWideAgain$Front <- WearWheelsWideAgain$FR / WearWheelsWideAgain$FL
    WearWheelsWideAgain$Rear <- WearWheelsWideAgain$RR / WearWheelsWideAgain$RL
    #backtolong #1 for plot
    WearRLLong <- tidyr::pivot_longer(data = WearWheelsWideAgain, 
                                      cols = c("Front", "Rear"), #,"Wheel"
                                      names_to = "RL_ratio",
                                      values_to = "wear")
    WearRLLong$RL_ratio <- factor(WearRLLong$RL_ratio, levels = c("Rear", "Front"))
    WearRLLong

    ## # A tibble: 252 × 13
    ##    Tyre     track     FR    FL    RR    RL Total FInner FOuter RInner ROuter
    ##    <chr>    <chr>  <dbl> <dbl> <dbl> <dbl> <dbl>  <dbl>  <dbl>  <dbl>  <dbl>
    ##  1 LingLong R1     100.   91.6 19.0   29.4  240.  100.    91.6  19.0    29.4
    ##  2 LingLong R1     100.   91.6 19.0   29.4  240.  100.    91.6  19.0    29.4
    ##  3 LingLong R2     105.  106.  29.0   40.0  279.  105.   106.   29.0    40.0
    ##  4 LingLong R2     105.  106.  29.0   40.0  279.  105.   106.   29.0    40.0
    ##  5 LingLong R3      80.5  95.2  8.65  42.4  227.   80.5   95.2   8.65   42.4
    ##  6 LingLong R3      80.5  95.2  8.65  42.4  227.   80.5   95.2   8.65   42.4
    ##  7 LingLong T1_Rur 103.  125.  40.3   40.3  309.  103.   125.   40.3    40.3
    ##  8 LingLong T1_Rur 103.  125.  40.3   40.3  309.  103.   125.   40.3    40.3
    ##  9 LingLong T1_Mot 258.  297.  71.6  182.   809.  258.   297.   71.6   182. 
    ## 10 LingLong T1_Mot 258.  297.  71.6  182.   809.  258.   297.   71.6   182. 
    ## # ℹ 242 more rows
    ## # ℹ 2 more variables: RL_ratio <fct>, wear <dbl>
…
