…
    kData25

    ## # A tibble: 75,000 × 14
    ## # Groups:   Tyre_brand, Scenario, Shift [25]
    ##    Tyre_brand Scenario Shift AbrasionTest Abrasion_mg_km nWheels `Vehicle type`
    ##    <chr>      <chr>    <chr> <chr>                 <dbl>   <int> <chr>         
    ##  1 Dunlop     Standard T1    Motorway               432.       4 Esccape Kuga  
    ##  2 Dunlop     Standard T1    Motorway               432.       4 Esccape Kuga  
    ##  3 Dunlop     Standard T1    Motorway               432.       4 Esccape Kuga  
    ##  4 Dunlop     Standard T1    Motorway               432.       4 Esccape Kuga  
    ##  5 Dunlop     Standard T1    Motorway               432.       4 Esccape Kuga  
    ##  6 Dunlop     Standard T1    Motorway               432.       4 Esccape Kuga  
    ##  7 Dunlop     Standard T1    Motorway               432.       4 Esccape Kuga  
    ##  8 Dunlop     Standard T1    Motorway               432.       4 Esccape Kuga  
    ##  9 Dunlop     Standard T1    Motorway               432.       4 Esccape Kuga  
    ## 10 Dunlop     Standard T1    Motorway               432.       4 Esccape Kuga  
    ## # ℹ 74,990 more rows
    ## # ℹ 7 more variables: RUN <int>, Section_count <int>, TotFrictionWork <dbl>,
    ## #   Test_Distance_km <dbl>, FW_p_km <dbl>, AbrasionCoeff <dbl>,
    ## #   TestScenName <chr>
…
